<svg width="14" height="14" viewBox="0 0 14 14" fill="none" xmlns="http://www.w3.org/2000/svg">
    <path d="M11.6666 12.25V11.0833C11.6666 10.4645 11.4208 9.871 10.9832 9.43342C10.5456 8.99583 9.95215 8.75 9.33331 8.75H4.66665C4.04781 8.75 3.45432 8.99583 3.01673 9.43342C2.57915 9.871 2.33331 10.4645 2.33331 11.0833V12.25"
          stroke="#0A7EC7" stroke-linecap="round" stroke-linejoin="round"/>
    <path d="M7.00002 6.41667C8.28869 6.41667 9.33335 5.372 9.33335 4.08333C9.33335 2.79467 8.28869 1.75 7.00002 1.75C5.71136 1.75 4.66669 2.79467 4.66669 4.08333C4.66669 5.372 5.71136 6.41667 7.00002 6.41667Z"
          stroke="#0A7EC7" stroke-linecap="round" stroke-linejoin="round"/>
</svg>
