<svg width="20" height="20" viewBox="0 0 20 20" fill="none" xmlns="http://www.w3.org/2000/svg">
    <path d="M9.375 13.75C11.7912 13.75 13.75 11.7912 13.75 9.375C13.75 6.95875 11.7912 5 9.375 5C6.95875 5 5 6.95875 5 9.375C5 11.7912 6.95875 13.75 9.375 13.75Z"
          stroke="white" stroke-linecap="round" stroke-linejoin="round"/>
    <path d="M15.5 14.5L13 12" stroke="white" stroke-linecap="round" stroke-linejoin="round"/>
</svg>
